annotated-types==0.6.0
anyio==3.7.1
bcrypt==4.0.1
certifi==2023.7.22
cffi==1.16.0
charset-normalizer==3.3.2
click==8.1.7
colorama==0.4.6
cryptography==41.0.5
dnspython==2.4.2
ecdsa==0.18.0
email-validator==2.1.0.post1
fastapi==0.104.1
greenlet==3.0.1
h11==0.14.0
idna==3.4
passlib==1.7.4
pyasn1==0.5.0
pycparser==2.21
pydantic==2.4.2
pydantic_core==2.10.1
python-jose==3.3.0
python-multipart==0.0.6
requests==2.31.0
rsa==4.9
six==1.16.0
sniffio==1.3.0
SQLAlchemy==2.0.23
starlette==0.27.0
typing_extensions==4.8.0
urllib3==2.0.7
uvicorn==0.23.2
